{
    "schemaVersion": 1,
    "id": "${mod_id}",
    "version": "${mod_version}",
    "name": "Bin's Enchants",
    "description": "Adds various enchantments to the game!",
    "authors": [
        "Jeroen Bollen <contact@jeroenbollen.eu>"
    ],
    "environment": "*",
    "entrypoints": {
        "main": [
            "eu.jeroenbollen.mcmods.binchants.Initialiser"
        ]
    },
    "mixins": [
        "binchants.mixins.json"
    ],
    "depends": {
        "fabricloader": ">=0.11.6",
        "fabric": "*",
        "minecraft": "1.17.x"
    }
}